%YAML 1.1
%TAG !u! tag:unity3d.com,2011:
--- !u!114 &11400000
MonoBehaviour:
  m_ObjectHideFlags: 0
  m_CorrespondingSourceObject: {fileID: 0}
  m_PrefabInstance: {fileID: 0}
  m_PrefabAsset: {fileID: 0}
  m_GameObject: {fileID: 0}
  m_Enabled: 1
  m_EditorHideFlags: 0
  m_Script: {fileID: 11500000, guid: e730142e7466ba34f97f5595c8e9de23, type: 3}
  m_Name: ExplodeCreeper
  m_EditorClassIdentifier: 
  _name: Explosion
  _cooldownTime: 0
  _activeTime: 0
  _attackSound: {fileID: 0}
  _damage: 10
  _range: 5
  _destroyEffect: {fileID: 5189522695652541341, guid: 9e55381dbf8492c469d75b523ee6789b, type: 3}
